<?xml version="1.0" encoding="UTF-8" standalone="no"?>
<svg width="24px" height="24px" viewBox="0 0 24 24" version="1.1" xmlns="http://www.w3.org/2000/svg" xmlns:xlink="http://www.w3.org/1999/xlink">
    <!-- Generator: sketchtool 40.1 (33804) - http://www.bohemiancoding.com/sketch -->
    <title>AE59AE28-04D5-44CA-8739-D6C1F18876FE</title>
    <desc>Created with sketchtool.</desc>
    <defs></defs>
    <g id="Symbols" stroke="none" stroke-width="1" fill="none" fill-rule="evenodd">
        <g id="icDate" fill="#2196F3">
            <path d="M19,3 L5,3 C3.895,3 3,3.895 3,5 L3,19 C3,20.105 3.895,21 5,21 L19,21 C20.105,21 21,20.105 21,19 L21,5 C21,3.895 20.105,3 19,3 L19,3 Z M20,19 C20,19.551 19.551,20 19,20 L5,20 C4.449,20 4,19.551 4,19 L4,8.5 L20,8.5 L20,19 Z M20,7.5 L4,7.5 L4,5 C4,4.449 4.449,4 5,4 L19,4 C19.551,4 20,4.449 20,5 L20,7.5 Z M14,17 L17,17 L17,14 L14,14 L14,17 Z M14,18 L17,18 C17.552,18 18,17.552 18,17 L18,14 C18,13.448 17.552,13 17,13 L14,13 C13.448,13 13,13.448 13,14 L13,17 C13,17.552 13.448,18 14,18 L14,18 Z"></path>
        </g>
    </g>
</svg>