<?xml version="1.0" encoding="UTF-8" standalone="no"?>
<svg width="24px" height="24px" viewBox="0 0 24 24" version="1.1" xmlns="http://www.w3.org/2000/svg" xmlns:xlink="http://www.w3.org/1999/xlink">
    <!-- Generator: sketchtool 40.1 (33804) - http://www.bohemiancoding.com/sketch -->
    <title>4EE2BC2D-491B-48EC-A309-0F87AD4BDD3C</title>
    <desc>Created with sketchtool.</desc>
    <defs>
        <rect id="path-1" x="0" y="0" width="500" height="226" rx="4"></rect>
        <filter x="-50%" y="-50%" width="200%" height="200%" filterUnits="objectBoundingBox" id="filter-2">
            <feOffset dx="0" dy="16" in="SourceAlpha" result="shadowOffsetOuter1"></feOffset>
            <feGaussianBlur stdDeviation="8" in="shadowOffsetOuter1" result="shadowBlurOuter1"></feGaussianBlur>
            <feColorMatrix values="0 0 0 0 0   0 0 0 0 0   0 0 0 0 0  0 0 0 0.24 0" type="matrix" in="shadowBlurOuter1" result="shadowMatrixOuter1"></feColorMatrix>
            <feOffset dx="0" dy="0" in="SourceAlpha" result="shadowOffsetOuter2"></feOffset>
            <feGaussianBlur stdDeviation="8" in="shadowOffsetOuter2" result="shadowBlurOuter2"></feGaussianBlur>
            <feColorMatrix values="0 0 0 0 0   0 0 0 0 0   0 0 0 0 0  0 0 0 0.12 0" type="matrix" in="shadowBlurOuter2" result="shadowMatrixOuter2"></feColorMatrix>
            <feMerge>
                <feMergeNode in="shadowMatrixOuter1"></feMergeNode>
                <feMergeNode in="shadowMatrixOuter2"></feMergeNode>
            </feMerge>
        </filter>
    </defs>
    <g id="Design" stroke="none" stroke-width="1" fill="none" fill-rule="evenodd">
        <g id="4.8.-PopUp-Upload" transform="translate(-1162.000000, -534.000000)">
            <rect id="bgShadow" fill="#000000" opacity="0.300000012" x="0" y="0" width="1920" height="1080"></rect>
            <g id="popUpUploading" transform="translate(710.000000, 402.000000)">
                <g id="BG">
                    <use fill="black" fill-opacity="1" filter="url(#filter-2)" xlink:href="#path-1"></use>
                    <use fill="#FAFAFA" fill-rule="evenodd" xlink:href="#path-1"></use>
                </g>
                <g id="2" transform="translate(0.000000, 118.000000)">
                    <rect id="BG" x="0" y="0" width="500" height="52"></rect>
                    <g id="icLoading" transform="translate(452.000000, 14.000000)" fill="#2196F3">
                        <path d="M11.9963748,3 C16.9669375,3 20.9963748,7.02943725 20.9963748,12 C20.9963748,16.9705627 16.9669375,21 11.9963748,21 C8.3275735,21 5.17149757,18.8047618 3.77001953,15.6561579 L4.684059,15.2499181 C5.92981726,18.0486771 8.73521808,20 11.9963748,20 C16.4146528,20 19.9963748,16.418278 19.9963748,12 C19.9963748,7.581722 16.4146528,4 11.9963748,4 L11.9963748,3 Z" id="indLoading"></path>
                    </g>
                </g>
            </g>
        </g>
    </g>
</svg>