<?xml version="1.0" encoding="UTF-8"?>
<svg width="96px" height="96px" viewBox="0 0 96 96" version="1.1" xmlns="http://www.w3.org/2000/svg" xmlns:xlink="http://www.w3.org/1999/xlink">
    <!-- Generator: sketchtool 40.3 (33839) - http://www.bohemiancoding.com/sketch -->
    <title>3A2F9A8E-752D-4C7A-9514-224A74E5FB35</title>
    <desc>Created with sketchtool.</desc>
    <defs></defs>
    <g id="Symbols" stroke="none" stroke-width="1" fill="none" fill-rule="evenodd">
        <g id="capCloud" fill="#B9BCBE">
            <path d="M25.296,36.272 C15.54,37.604 8,45.88 8,56 C8,67.044 16.956,76 28,76 L72,76 C80.836,76 88,68.836 88,60 C88,51.164 80.836,44 72,44 C72,30.744 61.256,20 48,20 C37.452,20 28.516,26.812 25.296,36.272 Z M68,44 L68,48 L72,48 C78.616,48 84,53.384 84,60 C84,66.616 78.616,72 72,72 L28,72 C19.176,72 12,64.824 12,56 C12,48.092 17.948,41.312 25.836,40.236 L28.284,39.9 L29.08,37.56 C31.844,29.452 39.444,24 48,24 C59.028,24 68,32.972 68,44 Z"></path>
        </g>
    </g>
</svg>